<?xml version="1.0" encoding="UTF-8"?>
<session version="1.0">
<refactoring comment="Delete resource &apos;freertos_blinky&apos;" deleteContents="false" description="Delete resource &apos;freertos_blinky&apos;" element1="/freertos_blinky" flags="7" id="org.eclipse.ltk.core.refactoring.delete.resources" resources="1" stamp="1599582050518"/>
</session>