gpio_17xx_40xx.h:144:20:Chip_GPIO_SetPinDIROutput	16	static
gpio_17xx_40xx.h:408:20:Chip_GPIO_SetPinOutHigh	16	static
gpio_17xx_40xx.h:450:20:Chip_GPIO_SetPinOutLow	16	static
lcd.c:33:6:Lcd_Delay	24	static
lcd.c:46:6:Lcd4_Port	16	static
lcd.c:70:6:Lcd4_Cmd	16	static
lcd.c:81:6:Lcd4_Clear	8	static
lcd.c:88:6:Lcd4_Set_Cursor	24	static
lcd.c:109:6:Lcd4_Init	8	static
lcd.c:131:6:Lcd4_Write_Char	24	static
lcd.c:151:6:Lcd4_Write_String	24	static
lcd.c:158:6:Lcd4_Shift_Right	8	static
lcd.c:165:6:Lcd4_Shift_Left	8	static
lcd.c:174:1:LCD_Init	8	static
