gpio_17xx_40xx.h:144:20:Chip_GPIO_SetPinDIROutput	16	static
gpio_17xx_40xx.h:408:20:Chip_GPIO_SetPinOutHigh	16	static
gpio_17xx_40xx.h:450:20:Chip_GPIO_SetPinOutLow	16	static
Rfid.c:30:5:Card	40	static
Rfid.c:73:9:MFRC522_Request	32	static
Rfid.c:99:9:MFRC522_Anticoll	32	static
Rfid.c:139:9:MFRC522_ToCard	48	static
Rfid.c:251:6:ClearBitMask	24	static
Rfid.c:266:6:SetBitMask	24	static
Rfid.c:286:9:MSS_SPI_transfer_frame	24	static
Rfid.c:319:9:Read_MFRC522	24	static
Rfid.c:340:6:Write_MFRC522	24	static
Rfid.c:354:6:MFRC522_Halt	32	static
Rfid.c:374:6:CalulateCRC	40	static
Rfid.c:407:6:MFRC522_Reset	8	static
Rfid.c:419:6:AntennaOn	8	static
Rfid.c:428:6:MFRC522_Init	8	static
Rfid.c:446:6:SPI_init	24	static
