Added Component: Designator=CN9(rele BORNERA)
Add component. Clean all parameters for all variants
Added Pin To Net: NetName=NetCN9_1 Pin=CN9-1
Added Pin To Net: NetName=NetCN9_1 Pin=CN?-2
Added Net: Name=NetCN9_1
Added Pin To Net: NetName=NetCN9_2 Pin=CN9-2
Added Pin To Net: NetName=NetCN9_2 Pin=CN?-1
Added Net: Name=NetCN9_2
Added Pin To Net: NetName=NetCN9_3 Pin=CN9-3
Added Pin To Net: NetName=NetCN9_3 Pin=CN?-3
Added Net: Name=NetCN9_3
Added Member To Class: ClassName=PRINCIPAL Member=Component CN9 rele bornera
Added Room: Name=PRINCIPAL
