Change Component Designator: OldDesignator=CN1 NewDesignator=CN1 SIe
Change Component Designator: OldDesignator=CN2 NewDesignator=CN2 SIo
Change Component Designator: OldDesignator=CN3 NewDesignator=CN3 SIp1
Change Component Designator: OldDesignator=CN4 NewDesignator=CN4 SIp2
