Added Component: Designator=R2(R_HOLE)
Add component. Clean all parameters for all variants
Added Component: Designator=rfid(RFID)
Add component. Clean all parameters for all variants
Added Pin To Net: NetName=buzzer Pin=R2-1
Added Pin To Net: NetName=NetCN4_1 Pin=R2-2
Added Pin To Net: NetName=SDA P0.16 J14 Pin=rfid-1
Added Pin To Net: NetName=SCK P0.15 J13 Pin=rfid-2
Added Pin To Net: NetName=MOSI P0.18 J11 Pin=rfid-3
Added Pin To Net: NetName=MISO P0.17 J12 Pin=rfid-4
Added Pin To Net: NetName=GND Pin=rfid-5
Added Pin To Net: NetName=+3.3V Pin=rfid-6
Added Member To Class: ClassName=PRINCIPAL Member=Component R2 470 5%
Added Member To Class: ClassName=PRINCIPAL Member=Component rfid RFID
