Added Component: Designator=CN5l298n(L298Ndriver)
Add component. Clean all parameters for all variants
Added Pin To Net: NetName=+5V Pin=CN5l298n-4
Added Pin To Net: NetName=GND Pin=CN5l298n-5
Added Member To Class: ClassName=PRINCIPAL Member=Component CN5l298n L298N
Added Room: Name=PRINCIPAL
