Added Component: Designator=d1(LED-0)
Add component. Clean all parameters for all variants
Add component (AddParameter): Name = "LatestRevisionDate"; Value = "08-Jul-2005"; VariantName = "[No Variations]"
Add component (AddParameter): Name = "LatestRevisionNote"; Value = "Mech Layer 1 removed."; VariantName = "[No Variations]"
Add component (AddParameter): Name = "PackageDescription"; Value = "LED; 2 Leads"; VariantName = "[No Variations]"
Add component (AddParameter): Name = "PackageReference"; Value = "LED-0"; VariantName = "[No Variations]"
Add component (AddParameter): Name = "Published"; Value = "8-Jun-2000"; VariantName = "[No Variations]"
Add component (AddParameter): Name = "Publisher"; Value = "Altium Limited"; VariantName = "[No Variations]"
Added Pin To Net: NetName=LED AMARILLO Pin=d1-2
Added Pin To Net: NetName=LED AMARILLO Pin=U1-53
Added Net: Name=LED AMARILLO
Added Pin To Net: NetName=Netd1_1 Pin=d1-1
Added Net: Name=Netd1_1
Added Member To Class: ClassName=PRINCIPAL Member=Component d1 led1
Added Room: Name=PRINCIPAL
