Added Pin To Net: NetName=ENB P0.7 J7 Pin=CN5l298n-1
Added Pin To Net: NetName=IN3 P0.6 J8 Pin=CN5l298n-2
Added Pin To Net: NetName=IN4 P0.0 J9 Pin=CN5l298n-3
Added Member To Class: ClassName=PRINCIPAL Member=Component CN5l298n L298N
Added Room: Name=PRINCIPAL
