Added Component: Designator=R4(R_HOLE)
Add component. Clean all parameters for all variants
Added Component: Designator=R?(R_HOLE)
Add component. Clean all parameters for all variants
Added Pin To Net: NetName=NetR?_1 Pin=R?-1
Added Pin To Net: NetName=NetCN6_2 Pin=R?-2
Added Pin To Net: NetName=BUZZER Pin=R4-1
Added Pin To Net: NetName=BUZZER Pin=U1-49
Added Net: Name=BUZZER
Added Pin To Net: NetName=NetCN4_1 Pin=CN4-1
Added Pin To Net: NetName=NetCN4_1 Pin=R4-2
Added Net: Name=NetCN4_1
Added Member To Class: ClassName=PRINCIPAL Member=Component R4 10k 5%
Added Member To Class: ClassName=PRINCIPAL Member=Component R? 10k 5%
Added Room: Name=PRINCIPAL
