Added Component: Designator=CN7(BORNERA_2X5MMpulsadores)
Add component. Clean all parameters for all variants
Added Component: Designator=R2(R_HOLE)
Add component. Clean all parameters for all variants
Added Component: Designator=R4(R_HOLE)
Add component. Clean all parameters for all variants
Added Pin To Net: NetName=GND Pin=CN7-2
Added Pin To Net: NetName=GND Pin=CN7-4
Added Pin To Net: NetName=+3.3V Pin=R2-2
Added Pin To Net: NetName=+3.3V Pin=R4-2
Added Pin To Net: NetName=Pulder Pin=CN7-3
Added Pin To Net: NetName=Pulder Pin=R2-1
Added Pin To Net: NetName=Pulder Pin=U1-51
Added Net: Name=Pulder
Added Pin To Net: NetName=Pulizq Pin=CN7-1
Added Pin To Net: NetName=Pulizq Pin=R4-1
Added Pin To Net: NetName=Pulizq Pin=U1-50
Added Net: Name=Pulizq
Added Member To Class: ClassName=PRINCIPAL Member=Component CN7 pulsadoresd
Added Member To Class: ClassName=PRINCIPAL Member=Component R2 10k 5%
Added Member To Class: ClassName=PRINCIPAL Member=Component R4 10k 5%
Added Room: Name=PRINCIPAL
