Added Pin To Net: NetName=AZUL        RS P0.3 J22 Pin=CN1-4
Added Pin To Net: NetName=VIOLETA  EN  P0.21  J23 Pin=CN1-6
Added Pin To Net: NetName=GRIS      D4    P2.13  J27 Pin=CN1-11
Added Pin To Net: NetName=BLANCO  D5  P0.27  J25 Pin=CN1-12
Added Pin To Net: NetName=NEGRO   D6  P0.28  J26 Pin=CN1-13
Added Pin To Net: NetName=MARRON   D7 P0.2   J21 Pin=CN1-14
Added Room: Name=PRINCIPAL
