Added Net: Name=+3.3V
Added Net: Name=+5V
Added Net: Name=ENB P0.7 J7
Added Net: Name=GND
Added Net: Name=IN3 P0.6 J8
Added Net: Name=IN4 P0.0 J9
Added Net: Name=LCD_EN
Added Net: Name=LCD_RS
Added Net: Name=MISO P0.17 J12
Added Net: Name=MOSI P0.18 J11
Added Net: Name=NetCN7_1
Added Net: Name=NetCN7_3
Added Net: Name=NetLCD1_3
Added Net: Name=P0.2 D7 J21 MARRON
Added Net: Name=P0.3 RS J22 AZUL
Added Net: Name=P0.21E J23 VIOLETA
Added Net: Name=P0.22 D4 J24 GRIS
Added Net: Name=P0.27 D5 J25 BLANCO
Added Net: Name=P0.28 D6 J26 NEGRO
Added Net: Name=SCK P0.15 J13
Added Net: Name=SDA P0.16 J14
Added Net: Name=SIin P0.4 J38
Added Net: Name=SIout P0.5 J39
Added Net: Name=SIp1 P0.10 J40
Added Net: Name=SIp2 P0.11 J41
Added Class: Name=PRINCIPAL
Added Room: Name=PRINCIPAL
