Added Pin To Net: NetName=GND Pin=CN?-1
Added Pin To Net: NetName=+5V Pin=CN?-2
Added Pin To Net: NetName=P2.13 RS J27 AZUL Pin=CN?-4
Added Pin To Net: NetName=GND Pin=CN?-5
Added Pin To Net: NetName=P0.28 EN J26 VIOLETA Pin=CN?-6
Added Pin To Net: NetName=NetCN?_3 Pin=CN?-3
Added Pin To Net: NetName=NetCN?_3 Pin=R3-2
Added Net: Name=NetCN?_3
Added Pin To Net: NetName=NetCN?_15 Pin=R1-1
Added Net: Name=NetCN?_15
Added Member To Class: ClassName=PRINCIPAL Member=Component CN? TECLADO
