Added Component: Designator=CN6(RFID)
Add component. Clean all parameters for all variants
Added Component: Designator=U2(CD4050_paraLCD)
Add component. Clean all parameters for all variants
Added Pin To Net: NetName=SDA P0.16 J14 Pin=CN6-1
Added Pin To Net: NetName=SCK P0.15 J13 Pin=CN6-2
Added Pin To Net: NetName=MOSI P0.18 J11 Pin=CN6-3
Added Pin To Net: NetName=MISO P0.17 J12 Pin=CN6-4
Added Pin To Net: NetName=GND Pin=CN6-5
Added Pin To Net: NetName=+3.3V Pin=CN6-6
Added Pin To Net: NetName=GND Pin=U2-1
Added Pin To Net: NetName=LCD_D7 Pin=U2-2
Added Pin To Net: NetName=P0.2 D7 J21 MARRON Pin=U2-3
Added Pin To Net: NetName=LCD_D6 Pin=U2-4
Added Pin To Net: NetName=P0.28 D6 J26 NEGRO Pin=U2-5
Added Pin To Net: NetName=LCD_D5 Pin=U2-6
Added Pin To Net: NetName=P0.27 D5 J25 BLANCO Pin=U2-7
Added Pin To Net: NetName=+5V Pin=U2-8
Added Pin To Net: NetName=LCD_D4 Pin=U2-10
Added Pin To Net: NetName=P0.21E J23 VIOLETA Pin=U2-11
Added Pin To Net: NetName=LCD_EN Pin=U2-12
Added Pin To Net: NetName=P0.3 RS J22 AZUL Pin=U2-14
Added Pin To Net: NetName=LCD_RS Pin=U2-15
Added Member To Class: ClassName=PRINCIPAL Member=Component CN6 RFID
Added Member To Class: ClassName=PRINCIPAL Member=Component U2 CD4050_OR
