Removed Pin From Net: NetName=+3.3V Pin=CN8-3
Change Component Footprint: Designator=CN8 Old Footprint=JUMPER  VCC New Footprint=teclado matricial 4x4
Added Pin To Net: NetName=+3.3V Pin=CN8-2
Added Room: Name=PRINCIPAL
