gpio_17xx_40xx.h:144:20:Chip_GPIO_SetPinDIROutput	16	static
gpio_17xx_40xx.h:408:20:Chip_GPIO_SetPinOutHigh	16	static
gpio_17xx_40xx.h:450:20:Chip_GPIO_SetPinOutLow	16	static
gpio.c:276:5:Card	40	static
gpio.c:319:9:MFRC522_Request	32	static
gpio.c:345:9:MFRC522_Anticoll	32	static
gpio.c:385:9:MFRC522_ToCard	48	static
gpio.c:497:6:ClearBitMask	24	static
gpio.c:512:6:SetBitMask	24	static
gpio.c:532:9:MSS_SPI_transfer_frame	24	static
gpio.c:565:9:Read_MFRC522	24	static
gpio.c:586:6:Write_MFRC522	24	static
gpio.c:600:6:MFRC522_Halt	32	static
gpio.c:620:6:CalulateCRC	40	static
gpio.c:653:6:MFRC522_Reset	8	static
gpio.c:665:6:AntennaOn	8	static
gpio.c:674:6:MFRC522_Init	8	static
gpio.c:692:6:SPI_init	24	static
gpio.c:733:13:taskMFRC522	80	static
gpio.c:799:5:main	24	static
