core_cm3.h:1405:22:NVIC_SetPriority	16	static
core_cm3.h:1532:26:SysTick_Config	16	static
sysctl_17xx_40xx.h:153:20:Chip_SYSCTL_SetFLASHAccess	24	static
iocon_17xx_40xx.h:151:20:Chip_IOCON_Init	16	static
iocon_17xx_40xx.h:190:20:Chip_IOCON_EnableOD	16	static
gpio_17xx_40xx.h:64:20:Chip_GPIO_Init	16	static
gpio_17xx_40xx.h:88:20:Chip_GPIO_SetPinState	16	static
gpio_17xx_40xx.h:106:20:Chip_GPIO_WritePortBit	24	static
gpio_17xx_40xx.h:144:20:Chip_GPIO_SetPinDIROutput	16	static
gpio_17xx_40xx.h:156:20:Chip_GPIO_SetPinDIRInput	16	static
gpio_17xx_40xx.h:169:20:Chip_GPIO_SetPinDIR	16	static
eeprom.c:29:6:init_hardware	16	static
eeprom.c:69:10:leer_24lc64	56	static
eeprom.c:96:10:escribir_24lc64	88	static
