Removed Pin From Net: NetName=+5V Pin=CD4050-1
Removed Pin From Net: NetName=GND Pin=CD4050-8
Removed Pin From Net: NetName=ENB P0.7 J7 Pin=CN5l298n-1
Removed Pin From Net: NetName=IN3 P0.6 J8 Pin=CN5l298n-2
Removed Pin From Net: NetName=IN4 P0.0 J9 Pin=CN5l298n-3
Removed Pin From Net: NetName=+5V Pin=CN5l298n-4
Removed Pin From Net: NetName=GND Pin=CN5l298n-5
Removed Pin From Net: NetName=GND Pin=LCD-7
Removed Pin From Net: NetName=GND Pin=LCD-8
Removed Pin From Net: NetName=GND Pin=LCD-9
Removed Pin From Net: NetName=GND Pin=LCD-10
Removed Pin From Net: NetName=+5V Pin=LCD-15
Removed Pin From Net: NetName=GND Pin=pulsadores-2
Removed Pin From Net: NetName=GND Pin=pulsadores-4
Removed Pin From Net: NetName=+3.3V Pin=R2-2
Removed Pin From Net: NetName=+3.3V Pin=R4-2
Removed Pin From Net: NetName=+3.3V Pin=Sinfrarojo-2
Removed Pin From Net: NetName=GND Pin=Sinfrarojo-3
Removed Pin From Net: NetName=+3.3V Pin=Sinfrarojo-5
Removed Pin From Net: NetName=GND Pin=Sinfrarojo-6
Removed Pin From Net: NetName=+3.3V Pin=Sinfrarojo-8
Removed Pin From Net: NetName=GND Pin=Sinfrarojo-9
Removed Pin From Net: NetName=+3.3V Pin=Sinfrarojo-11
Removed Pin From Net: NetName=GND Pin=Sinfrarojo-12
Removed Pin From Net: NetName=+3.3V Pin=Sinfrarojo-14
Removed Pin From Net: NetName=GND Pin=Sinfrarojo-15
Removed Member From Class: ClassName=PRINCIPAL Member=CD4050
Removed Member From Class: ClassName=PRINCIPAL Member=CN5l298n
Removed Member From Class: ClassName=PRINCIPAL Member=pulsadores
Removed Member From Class: ClassName=PRINCIPAL Member=R2
Removed Member From Class: ClassName=PRINCIPAL Member=R4
Removed Member From Class: ClassName=PRINCIPAL Member=Sinfrarojo
Added Component: Designator=CN?(teclado matricial 4x4)
Add component. Clean all parameters for all variants
Added Component: Designator=R1(R_HOLE)
Add component. Clean all parameters for all variants
Added Pin To Net: NetName=+5V Pin=R1-2
Added Pin To Net: NetName=c1 Pin=CN?-5
Added Pin To Net: NetName=c1 Pin=U1-42
Added Net: Name=c1
Added Pin To Net: NetName=c2 Pin=CN?-6
Added Pin To Net: NetName=c2 Pin=U1-43
Added Net: Name=c2
Added Pin To Net: NetName=c3 Pin=CN?-7
Added Pin To Net: NetName=c3 Pin=U1-44
Added Net: Name=c3
Added Pin To Net: NetName=c4 Pin=CN?-8
Added Pin To Net: NetName=c4 Pin=U1-45
Added Net: Name=c4
Added Pin To Net: NetName=f1 Pin=CN?-1
Added Pin To Net: NetName=f1 Pin=U1-38
Added Net: Name=f1
Added Pin To Net: NetName=f2 Pin=CN?-2
Added Pin To Net: NetName=f2 Pin=U1-39
Added Net: Name=f2
Added Pin To Net: NetName=f3 Pin=CN?-3
Added Pin To Net: NetName=f3 Pin=U1-40
Added Net: Name=f3
Added Pin To Net: NetName=f4 Pin=CN?-4
Added Pin To Net: NetName=f4 Pin=U1-41
Added Net: Name=f4
Added Pin To Net: NetName=NetLCD_15 Pin=LCD-15
Added Pin To Net: NetName=NetLCD_15 Pin=R1-1
Added Net: Name=NetLCD_15
Added Pin To Net: NetName=P0.2 D6 J21 NEGRO Pin=LCD-13
Added Pin To Net: NetName=P0.2 D6 J21 NEGRO Pin=U1-21
Added Net: Name=P0.2 D6 J21 NEGRO
Added Pin To Net: NetName=P0.3 D4 J22 GRIS Pin=LCD-11
Added Pin To Net: NetName=P0.3 D4 J22 GRIS Pin=U1-22
Added Net: Name=P0.3 D4 J22 GRIS
Added Pin To Net: NetName=P0.21 D5 J23 BLANCO Pin=LCD-12
Added Pin To Net: NetName=P0.21 D5 J23 BLANCO Pin=U1-23
Added Net: Name=P0.21 D5 J23 BLANCO
Added Pin To Net: NetName=P0.27  D7 J25 MARRON Pin=LCD-14
Added Pin To Net: NetName=P0.27  D7 J25 MARRON Pin=U1-25
Added Net: Name=P0.27  D7 J25 MARRON
Added Pin To Net: NetName=P0.28 EN J26 VIOLETA Pin=LCD-6
Added Pin To Net: NetName=P0.28 EN J26 VIOLETA Pin=U1-26
Added Net: Name=P0.28 EN J26 VIOLETA
Added Pin To Net: NetName=P2.13 RS J27 AZUL Pin=LCD-4
Added Pin To Net: NetName=P2.13 RS J27 AZUL Pin=U1-27
Added Net: Name=P2.13 RS J27 AZUL
Added Member To Class: ClassName=PRINCIPAL Member=Component CN? TECLADO
Added Member To Class: ClassName=PRINCIPAL Member=Component R1 330 5%
Added Room: Name=PRINCIPAL
