Added Component: Designator=CN12(gpio EXTRA)
Add component. Clean all parameters for all variants
Added Pin To Net: NetName=1 Pin=CN12-1
Added Pin To Net: NetName=2 Pin=CN12-2
Added Pin To Net: NetName=3 Pin=CN12-3
Added Member To Class: ClassName=PRINCIPAL Member=Component CN12 gpio
Added Room: Name=PRINCIPAL
