Removed Pin From Net: NetName=SIin P0.4 J38 Pin=CN1 SIe-1
Removed Pin From Net: NetName=+3.3V Pin=CN1 SIe-2
Removed Pin From Net: NetName=GND Pin=CN1 SIe-3
Removed Pin From Net: NetName=SIout P0.5 J39 Pin=CN2 SIo-1
Removed Pin From Net: NetName=+3.3V Pin=CN2 SIo-2
Removed Pin From Net: NetName=GND Pin=CN2 SIo-3
Removed Pin From Net: NetName=SIp1 P0.10 J40 Pin=CN3 SIp1-1
Removed Pin From Net: NetName=+3.3V Pin=CN3 SIp1-2
Removed Pin From Net: NetName=GND Pin=CN3 SIp1-3
Removed Pin From Net: NetName=SIp2 P0.11 J41 Pin=CN4 SIp2-1
Removed Pin From Net: NetName=+3.3V Pin=CN4 SIp2-2
Removed Pin From Net: NetName=GND Pin=CN4 SIp2-3
Removed Member From Class: ClassName=PRINCIPAL Member=CN1 SIe
Removed Member From Class: ClassName=PRINCIPAL Member=CN2 SIo
Removed Member From Class: ClassName=PRINCIPAL Member=CN3 SIp1
Removed Member From Class: ClassName=PRINCIPAL Member=CN4 SIp2
Added Component: Designator=CNinfrarro(BLOQUEinfrarrojoT)
Add component. Clean all parameters for all variants
Added Pin To Net: NetName=SIin P0.4 J38 Pin=CNinfrarro-1
Added Pin To Net: NetName=+3.3V Pin=CNinfrarro-2
Added Pin To Net: NetName=GND Pin=CNinfrarro-3
Added Pin To Net: NetName=SIout P0.5 J39 Pin=CNinfrarro-4
Added Pin To Net: NetName=+3.3V Pin=CNinfrarro-5
Added Pin To Net: NetName=GND Pin=CNinfrarro-6
Added Pin To Net: NetName=SIp1 P0.10 J40 Pin=CNinfrarro-7
Added Pin To Net: NetName=+3.3V Pin=CNinfrarro-8
Added Pin To Net: NetName=GND Pin=CNinfrarro-9
Added Pin To Net: NetName=SIp2 P0.11 J41 Pin=CNinfrarro-10
Added Pin To Net: NetName=+3.3V Pin=CNinfrarro-11
Added Pin To Net: NetName=GND Pin=CNinfrarro-12
Added Member To Class: ClassName=PRINCIPAL Member=Component CNinfrarro INFRAROJO_1
Added Room: Name=PRINCIPAL
