Change Component Footprint: Designator=CN9 Old Footprint=rele BORNERA New Footprint=teclado matricial 4x4
Change Component Designator: OldDesignator=D? NewDesignator=D7
Change Component Designator: OldDesignator=R? NewDesignator=R2
Change Net Name : Old Net Name=NetCN9_1 New Net Name=NA coneto aqui
Change Net Name : Old Net Name=NetCN9_2 New Net Name=fuente 12v
Change Net Name : Old Net Name=NetCN9_3 New Net Name=NC
Added Room: Name=PRINCIPAL
