Change Component Footprint: Designator=CN3 Old Footprint=SENSOR MAGNETICO BORNERA New Footprint=SENSOR MAGNETIC0
Added Pin To Net: NetName=GND Pin=CN1-15
Added Pin To Net: NetName=GND Pin=R1-1
Change Net Name : Old Net Name=GND New Net Name=led lcd
Added Room: Name=PRINCIPAL
