Change Component Designator: OldDesignator=CN? NewDesignator=CN2
Added Component: Designator=CN4(BUZZER)
Add component. Clean all parameters for all variants
Added Pin To Net: NetName=GND Pin=CN4-2
Change Net Name : Old Net Name=NetCN3_1 New Net Name=sensor magnetico
Added Pin To Net: NetName=buzzer Pin=U1-49
Added Net: Name=buzzer
Added Pin To Net: NetName=NetCN4_1 Pin=CN4-1
Added Net: Name=NetCN4_1
Added Member To Class: ClassName=PRINCIPAL Member=Component CN4 BUZZER
